%YAML 1.1
%TAG !u! tag:unity3d.com,2011:
--- !u!114 &11400000
MonoBehaviour:
  m_ObjectHideFlags: 0
  m_CorrespondingSourceObject: {fileID: 0}
  m_PrefabInstance: {fileID: 0}
  m_PrefabAsset: {fileID: 0}
  m_GameObject: {fileID: 0}
  m_Enabled: 1
  m_EditorHideFlags: 0
  m_Script: {fileID: 11500000, guid: 7297eac46df5409aabf581801da4e813, type: 3}
  m_Name: LocalizationList
  m_EditorClassIdentifier: 
  items:
  - tag: inputName
    ru: "\u0412\u0432\u0435\u0434\u0438\u0442\u0435 \u0438\u043C\u044F"
    en: Input Name
  - tag: enterName
    ru: "\u0412\u0430\u0448\u0435 \u0438\u043C\u044F"
    en: Enter Name
  - tag: inputSurname
    ru: "\u0412\u0432\u0435\u0434\u0438\u0442\u0435 \u0444\u0430\u043C\u0438\u043B\u0438\u044E"
    en: Input Surname
  - tag: enterSurname
    ru: "\u0412\u0430\u0448\u0430 \u0444\u0430\u043C\u0438\u043B\u0438\u044F"
    en: Enter Surname
  - tag: buttonResult
    ru: "\u041E\u041A"
    en: OK
  - tag: emptyName
    ru: "\u0418\u043C\u044F \u043F\u0443\u0441\u0442\u043E\u0435"
    en: Name is empty
  - tag: emptySurname
    ru: "\u0424\u0430\u043C\u0438\u043B\u0438\u044F \u043F\u0443\u0441\u0442\u0430\u044F"
    en: Surname is empty
  - tag: textResult
    ru: "\u0414\u043E\u0431\u0440\u043E \u043F\u043E\u0436\u0430\u043B\u043E\u0432\u0430\u0442\u044C,"
    en: Welcome
